…
# leading zeros issues with 82z

    Code
      co2_df
    Output
      # A tibble: 652 x 5
         f_fluxid   f_datetime          f_conc f_end               f_start            
         <chr>      <dttm>               <dbl> <dttm>              <dttm>             
       1 82m-0102-~ 2021-05-06 00:34:21   423. 2021-05-06 00:36:30 2021-05-06 00:34:21
       2 82m-0102-~ 2021-05-06 00:34:22   423. 2021-05-06 00:36:30 2021-05-06 00:34:21
       3 82m-0102-~ 2021-05-06 00:34:23   424. 2021-05-06 00:36:30 2021-05-06 00:34:21
       4 82m-0102-~ 2021-05-06 00:34:24   423. 2021-05-06 00:36:30 2021-05-06 00:34:21
       5 82m-0102-~ 2021-05-06 00:34:25   423. 2021-05-06 00:36:30 2021-05-06 00:34:21
       6 82m-0102-~ 2021-05-06 00:34:26   423. 2021-05-06 00:36:30 2021-05-06 00:34:21
       7 82m-0102-~ 2021-05-06 00:34:27   423. 2021-05-06 00:36:30 2021-05-06 00:34:21
       8 82m-0102-~ 2021-05-06 00:34:28   423. 2021-05-06 00:36:30 2021-05-06 00:34:21
       9 82m-0102-~ 2021-05-06 00:34:29   424. 2021-05-06 00:36:30 2021-05-06 00:34:21
      10 82m-0102-~ 2021-05-06 00:34:30   423. 2021-05-06 00:36:30 2021-05-06 00:34:21
      # i 642 more rows
