reads Li-COR files in a given location — licoread • licoread
…
glimpse
if TRUE, a random selection of five files will be imported.
This allows for testing the setup before importing a potentially large list
of files which will take time and be difficult to handle.

    Value

    a tibble (nested or not depending on raw data) containing all the
data from the raw files present at the location provided

    Examples

path_81x <- system.file("extdata/81x", package = "licoread")
licoread(path_81x)
#> # A tibble: 25 × 49
#>    `LI-8100`     `File Name` `Instrument Name` `Serial Number` Software Comments
#>    <chr>         <chr>       <chr>             <chr>           <chr>    <lgl>   
#>  1 "1b1\t      … 10-28-2011  81A-0107          81A-0107        4.0.0b   NA      
#>  2 "1c5\t      … 10-28-2011  81A-0107          81A-0107        4.0.0b   NA      
#>  3 "1c5\t      … 10-28-2011  81A-0107          81A-0107        4.0.0b   NA      
#>  4 "1c5\t      … 10-28-2011  81A-0107          81A-0107        4.0.0b   NA      
#>  5 "1c5\t      … 10-28-2011  81A-0107          81A-0107        4.0.0b   NA      
#>  6 "1c5\t      … 10-28-2011  81A-0107          81A-0107        4.0.0b   NA      
#>  7 "1c5\t      … 10-28-2011  81A-0107          81A-0107        4.0.0b   NA      
#>  8 "1c5\t      … 10-28-2011  81A-0107          81A-0107        4.0.0b   NA      
#>  9 "1c5\t      … 10-28-2011  81A-0107          81A-0107        4.0.0b   NA      
#> 10 "1c6\t      … 10-28-2011  81A-0107          81A-0107        4.0.0b   NA      
#> # ℹ 15 more rows
#> # ℹ 43 more variables: `Obs#` <int>, `Port#` <int>, Label <chr>,
#> #   `Observation Length` <chr>, `Pre-purge` <chr>, `Post-purge` <chr>,
#> #   `IRGA Averaging` <int>, Chamber <int>, TSource <chr>, Flow8100 <int>,
#> #   Virga <dbl>, Vext <dbl>, Vcham <dbl>, Offset <dbl>, Area <dbl>,
#> #   Vtotal <dbl>, `V4 Info` <chr>, `T4 Info` <chr>, Labels_01 <int>,
#> #   CrvFitStatus <chr>, Exp_Flux <dbl>, Exp_FluxCV <dbl>, …
…
